<svg class="text-blue-400" width="20" height="14" viewBox="0 0 20 14" fill="none"
                  xmlns="http://www.w3.org/2000/svg">
                  <path d="M0 0H20V2.33333H0V0ZM0 5.83333H20V8.16667H0V5.83333ZM0 11.6667H20V14H0V11.6667Z"
                      fill="currentColor" />
              </svg>